<?xml version="1.0" encoding="utf-8"?>
<!-- Generator: Adobe Illustrator 24.2.3, SVG Export Plug-In . SVG Version: 6.00 Build 0)  -->
<svg version="1.1" id="Capa_2" xmlns="http://www.w3.org/2000/svg" xmlns:xlink="http://www.w3.org/1999/xlink" x="0px" y="0px"
	 viewBox="0 0 73.4 74.8" style="enable-background:new 0 0 73.4 74.8;" xml:space="preserve">
<style type="text/css">
	.st0{fill:#066033;}
	.st1{fill:#54C2D6;}
	.st2{fill:#8CE1E7;}
	.st3{fill:#009490;}
	.st4{fill:none;}
	.st5{fill:#D8EBFB;}
	.st6{fill:#FFFFFF;}
	.st7{fill:#009BCB;}
	.st8{fill:#3F1085;}
	.st9{fill:#582EAC;}
	.st10{fill:#906FCE;}
	.st11{fill:#FDC444;}
	.st12{fill:#F2EAF4;}
	.st13{fill:none;stroke:#5E3283;stroke-width:1.733;stroke-linecap:round;stroke-linejoin:round;stroke-miterlimit:10;}
	.st14{fill:#5E3283;}
	.st15{fill:none;stroke:#5E3283;stroke-width:1.7;stroke-linecap:round;stroke-linejoin:round;stroke-miterlimit:10;}
	.st16{fill:#F99D38;}
	.st17{fill:#B0FDF5;}
	.st18{fill:#2AB9EB;}
	.st19{fill:#B0FBF6;}
	.st20{fill:#FAEBB6;}
	.st21{fill:#B76700;}
	.st22{fill:#D49000;}
	.st23{fill:#DAB600;}
	.st24{fill:#FDC900;}
	.st25{fill:#B9261D;}
	.st26{fill:#D93A1F;}
	.st27{fill:#E83F2A;}
	.st28{fill:#ED432E;}
	.st29{fill:#031B56;}
	.st30{fill:#042E82;}
	.st31{fill:#1674B3;}
	.st32{fill:#3695B6;}
	.st33{fill:#E3D6E9;}
	.st34{fill:#513E8B;}
	.st35{fill:#FBB062;}
	.st36{fill:#B49DC8;}
	.st37{fill:#654F95;}
	.st38{fill:#442B7F;}
	.st39{fill:#442D80;}
	.st40{fill:#F58545;}
	.st41{fill:#AE1264;}
	.st42{fill:#E2036A;}
	.st43{fill:#F076A9;}
	.st44{fill:#F89946;}
	.st45{fill:#FCB876;}
	.st46{fill:#6D31BB;}
	.st47{fill:#8A5CEA;}
	.st48{fill:#FFBD8A;}
	.st49{fill:#442759;}
	.st50{fill:#90F5EC;}
	.st51{fill:#5E277C;}
	.st52{fill:#B1FFF7;}
	.st53{fill:#895BE7;}
	.st54{fill:#00B9EB;}
	.st55{fill:#558243;}
	.st56{fill:#7AB264;}
	.st57{fill:#FBD194;}
	.st58{fill:#BCABDC;}
	.st59{fill:#DC0A6D;}
	.st60{fill:none;stroke:#7651B9;stroke-width:4.0762;stroke-linecap:round;stroke-miterlimit:10;}
	.st61{fill:none;stroke:#310979;stroke-width:4.7555;stroke-linecap:round;stroke-miterlimit:10;}
	.st62{fill:#7651B9;}
	.st63{fill:#7550B9;}
	.st64{fill:#7551B9;}
	.st65{fill:#FBD399;}
	.st66{fill:#DDD6EE;}
	.st67{fill:#F9B050;}
	.st68{fill:#F88E32;}
	.st69{fill:#471298;}
	.st70{fill:#320B7A;}
	.st71{fill:#5A31AD;}
	.st72{fill:#471299;}
	.st73{fill:#CBC0E5;}
	.st74{fill:#320A79;}
	.st75{fill:#310979;}
	.st76{fill:#4E21A0;}
	.st77{fill:#F89133;}
	.st78{fill:#EB4360;}
	.st79{fill:#F8792C;}
	.st80{fill:#DFD2EF;}
	.st81{fill:#C0A2CC;}
	.st82{fill:#1D1D1B;}
	.st83{fill:#494949;}
	.st84{fill:#EFE7F6;}
	.st85{fill:#F491A0;}
	.st86{fill:#FFB58A;}
	.st87{fill:#FC822F;}
	.st88{fill:#FFC7A7;}
	.st89{fill:#FFBE98;}
	.st90{fill:#7C422E;}
	.st91{fill:#E7DEF1;}
	.st92{fill:#B698D5;}
	.st93{fill:#CEBCE4;}
	.st94{fill:#DFDFDD;}
	.st95{fill:#3BBCE6;}
	.st96{fill:#EAA315;}
	.st97{fill:#F0EAF9;}
	.st98{fill:#E1D5F3;}
	.st99{fill:#2D2D8F;}
	.st100{fill:#4250B7;}
	.st101{fill:#1A0789;}
	.st102{fill:#D9C9EF;}
	.st103{fill:#6162DF;}
	.st104{fill:#F7B236;}
	.st105{fill:#B39DDD;}
	.st106{fill:#D80E70;}
	.st107{fill:#B8A4DF;}
	.st108{fill:#FF3349;}
	.st109{fill:#BB012D;}
	.st110{fill:#0093C4;}
	.st111{fill:#FAB04F;}
	.st112{fill:#3F1086;}
	.st113{fill:#2D0661;}
	.st114{fill:#9071C6;}
	.st115{fill:#7652BA;}
	.st116{fill:#3C1093;}
	.st117{fill:#582FAD;}
	.st118{fill:#5936A9;}
	.st119{fill:#EC435F;}
	.st120{fill:#F27A8E;}
	.st121{fill:#B7A5DC;}
	.st122{fill:none;stroke:#B7A5DC;stroke-width:0.3138;stroke-miterlimit:10;}
	.st123{fill:#FDD8A4;}
	.st124{fill:url(#SVGID_1_);}
	.st125{fill:#3F54AF;}
	.st126{fill:url(#SVGID_2_);}
	.st127{fill:#2BB2E1;}
	.st128{fill:#2DA638;}
	.st129{fill:#1777B6;}
	.st130{fill:url(#SVGID_3_);}
	.st131{fill:none;stroke:#5E3283;stroke-width:1.5845;stroke-linecap:round;stroke-linejoin:round;stroke-miterlimit:10;}
	.st132{fill:#D6293B;}
	.st133{fill:#A2A8AC;}
	.st134{fill:#BD153B;}
	.st135{fill:#E16370;}
	.st136{fill:#878F94;}
	.st137{fill:#E2E3E5;}
	.st138{fill:#FF9633;}
	.st139{fill:#FB6459;}
	.st140{fill:#25A98B;}
	.st141{fill:#DD5D00;}
	.st142{fill:#5EA6FE;}
	.st143{fill:#3D3D3D;}
	.st144{fill:#555E66;}
	.st145{fill:#D1D1D1;}
	.st146{fill:#FFB066;}
	.st147{fill:#FFBC7D;}
	.st148{fill:#FFD638;}
	.st149{fill:#F17D03;}
	.st150{fill:#8B9398;}
	.st151{fill:#BBBFC2;}
	.st152{fill:#2B2B2B;}
	.st153{fill:#E73901;}
	.st154{fill:#CDD0D2;}
	.st155{fill:#475059;}
	.st156{fill:#FFB300;}
	.st157{fill:#1B90FE;}
	.st158{fill:#FF7C00;}
	.st159{fill:#CFD2D4;}
	.st160{fill:#1F1F1F;}
	.st161{fill:#F0F0F0;}
	.st162{fill:#797778;}
	.st163{fill:#D3C9E0;}
	.st164{fill:#006DA6;}
	.st165{fill:#005C88;}
	.st166{fill:#F3F3F3;}
	.st167{fill:#D1D1D8;}
	.st168{fill:#CDCFD2;}
	.st169{fill:#959CA0;}
	.st170{fill:#929AA1;}
	.st171{fill:#DED8D4;}
	.st172{fill:#DB5347;}
	.st173{clip-path:url(#SVGID_5_);fill:#D8D8D8;}
	.st174{fill:#DEDFE3;}
	.st175{fill:#4F5054;}
	.st176{fill:#AFADAE;}
	.st177{fill:#B2B4B9;}
	.st178{fill:#BBBEC2;}
	.st179{fill:#D2D4D7;}
	.st180{fill:#A43901;}
	.st181{fill:#677178;}
	.st182{fill:#3D4F59;}
	.st183{fill:#F1EFF4;}
	.st184{fill:#60AEFE;}
	.st185{fill:#3F9DFE;}
	.st186{fill:#F18850;}
	.st187{fill:#FFB07C;}
	.st188{fill:#747C82;}
	.st189{fill:#8D3B26;}
	.st190{fill:#BFC4C6;}
	.st191{fill:#8D240F;}
	.st192{fill:#B3ABA4;}
	.st193{fill:#AE4209;}
	.st194{fill:#FFA400;}
	.st195{fill:#4C4B49;}
	.st196{opacity:0.4;fill:#FFFFFF;}
	.st197{fill:#6D6563;}
</style>
<g id="Icons">
	<circle class="st6" cx="46.9" cy="28.5" r="1.6"/>
	<g>
		<path class="st6" d="M23.5,37.3c0-2.9,0-5.7,0-8.6c0-3.5,2.4-6.5,5.9-6.7c6.1-0.3,12.2-0.3,18.3,0c3.7,0.1,6.1,3.1,6.1,6.8
			c0,5.7,0,11.5,0,17.2c0,4-2.7,6.8-6.7,6.9c-5.7,0.1-11.3,0.1-17,0c-4-0.1-6.6-2.8-6.6-6.7C23.5,43.2,23.5,40.2,23.5,37.3z
			 M51,37.3c0-2.7,0.1-5.5,0-8.2c-0.1-2.7-1.5-4.2-4.2-4.2c-5.5-0.1-10.9-0.1-16.4,0c-2.7,0-4.2,1.5-4.2,4.2c-0.1,5.5-0.1,11,0,16.6
			c0,2.6,1.5,4,4,4c5.5,0.1,10.9,0.1,16.4,0c3,0,4.3-1.4,4.4-4.4C51.1,42.7,51,40,51,37.3z"/>
		<path class="st6" d="M38.7,45.5c-4.3,0.1-8-3.6-8.1-7.9c-0.1-4.5,3.6-8.4,8-8.4c4.4,0,8.2,3.7,8.2,8
			C46.8,41.6,43.1,45.4,38.7,45.5z M38.8,32.4c-2.8-0.1-5.2,2.1-5.3,4.8c-0.1,2.7,2.3,5.1,5,5.2c2.6,0.1,5-2.2,5.2-4.8
			C43.9,34.9,41.6,32.5,38.8,32.4z"/>
		<linearGradient id="SVGID_1_" gradientUnits="userSpaceOnUse" x1="0" y1="37.4045" x2="73.3656" y2="37.4045">
			<stop  offset="0" style="stop-color:#FACE45"/>
			<stop  offset="0.3489" style="stop-color:#FA1019"/>
			<stop  offset="0.7693" style="stop-color:#813DAB"/>
		</linearGradient>
		<path class="st124" d="M29,1.8c-1-0.2-1.6-0.5-1.5-1.3c0-0.4,0.6-0.5,0.9-0.3c0.7,0.4,2.2-0.3,2,0.3c-0.4,2.2,1,0.8,1.3,0.7
			c3.3-1.1,6.7-1.3,10.2-1.1c1.3,0.1,2.6,0,3.4,1.4C45.6,2.2,46.3,2,47,1.9c1.2-0.1,2.4,0.2,3.3,1.4C48,3.6,46,1.9,43.7,3.1
			c0.2,0.2,0.3,0.3,0.4,0.4C45,3.7,46.7,3,46.7,4.3C46.6,5.8,44.9,4.7,44,5c-0.4,0.1-0.9-0.1-1.3,0.5c1.5,0.3,2.5,1,3.5,2.2
			c1,1.2,3.3,1.3,5.2,1.2c0.3,0,0.7-0.4,1-0.1c2.6,2.8,6.3,3.7,9.2,6.1c14.7,12.3,15.9,34.3,2.2,47.7c-7,6.9-15.6,9.4-25.5,9.5
			c-6.7,0.1-11.9-3.2-17.7-5.1c-0.1,0-0.3-0.1-0.4-0.2c-1.5-0.5-3.2-0.6-4-2.3c-0.4-0.8-1.4-1.1-2-0.5c-0.8,0.8,0.3,1.4,0.8,1.9
			c2.9,2.9,6.2,5,9.8,6.9c0.7,0.4,1.4,0.7,1.8,2.1c-2.7-0.9-4.9-2.1-7-3.5c-3.3-2.1-6.1-4.8-9.9-5.9c-0.7-0.2-1.4-1-1.9-1.7
			C4.1,58.6,1.5,53,0.3,46.8c-0.1-0.5-0.8-1.3,0.6-1.4c0.7-0.1,0.3-1.4,0.1-2.1c-1-3.1-0.4-6.3-0.7-9.4c0-0.5,0-1.1,0.3-1.5
			c2.3-2.8,2.2-6.4,3-9.7c0.3-1.1,0.8-2,1.5-2.8c2.4-2.8,4.2-6,7.8-7.8c2.2-1.1,3.8-3.4,6-4.9C22,5.2,25.2,3.3,29,1.8z M38.6,11.3
			c-15.1,0-27.3,12.1-27.4,27.1c0,15.2,12.4,27.6,27.5,27.5c14.9-0.1,27.1-12.3,27.1-27.2C65.9,23.3,53.9,11.3,38.6,11.3z"/>
	</g>
</g>
</svg>
